Métodos multivariados - Parcial 1
…
  df_clusters <- data.frame(vector.ocupacion, vector.cluster)
  names(df_clusters) <- c("X1", "Cluster")
  
  ingreso.clusters <- gather(left_join(df, df_clusters, by = "X1"), "Año", "Salario_promedio", 2:16)
  names(ingreso.clusters) <- c("Ocupacion", "Cluster", "Anio", "Salario_promedio")
  
  ingreso.clusters
}

ingreso.clusters <- df_analisis(3, ingreso.matrix, ajuste, ingreso)
ingreso.clusters

## # A tibble: 330 x 4
##    Ocupacion                  Cluster Anio  Salario_promedio
##    <chr>                        <int> <chr>            <dbl>
##  1 Management                       1 2001             70800
##  2 Business Operations              2 2001             50580
##  3 Computer Science                 2 2001             60350
##  4 Architecture/Engineering         2 2001             56330
##  5 Life/Physical/Social Sci.        2 2001             49710
##  6 Community Services               3 2001             34190
##  7 Legal                            1 2001             69030
##  8 Education/Training/Library       3 2001             39130
##  9 Arts/Design/Entertainment        3 2001             39770
## 10 Healthcare Practitioners         2 2001             49930
## # ... with 320 more rows
…
